[
  {
    "model": "users",
    "keys": ["id"],
    "data": {
      "id": 1,
      "role": "admin",
      "sex": "male",
      "firstname": "Mel",
      "birthdate": "1990-03-18",
      "phone": "0658297007",
      "city": "Lyon 3e Arrondissement",
      "country": "France",
      "postal_code": 69003,
      "road_number": 1,
      "road_name": "Rue Trarieux",
      "lastname": "Florance",
      "email": "mel.florance@gmail.com",
      "password": "B109F3BBBC244EB82441917ED06D618B9008DD09B3BEFD1B5E07394C706A8BB980B1D7785E5976EC049B46DF5F1326AF5A2EA6D103FD07C95385FFAB0CACBC86",
      "activated": 1,
      "createdAt": "2018-07-29 14:53:49",
      "updatedAt": "2018-07-29 14:53:49"
    }
  }
]